## Interface: 80300
## Version: 8.3.0.a
## Title: BaikTest
## Author: Nikpmup
## Notes: Testing for BaikCore
## Dependencies: BaikCore
## OptionalDeps: Ace3
##·SavedVariables:·BaikTestDB
## X-Embeds: Ace3
Dependencies.xml
BaikCoreTest.lua
Include.xml
